…
<img src="bootstrapping_files/figure-gfm/unnamed-chunk-5-1.png" width="90%" />

Organize a dataframe…

``` r
boot_straps =
  tibble(
    strap_num = 1:1000,
    strap_sample = rerun(1000, boot_sample(df = sim_df_nonconst))
  )

boot_straps
```

    ## # A tibble: 1,000 x 2
    ##    strap_num strap_sample      
    ##        <int> <list>            
    ##  1         1 <tibble [250 × 3]>
    ##  2         2 <tibble [250 × 3]>
    ##  3         3 <tibble [250 × 3]>
    ##  4         4 <tibble [250 × 3]>
    ##  5         5 <tibble [250 × 3]>
    ##  6         6 <tibble [250 × 3]>
    ##  7         7 <tibble [250 × 3]>
    ##  8         8 <tibble [250 × 3]>
    ##  9         9 <tibble [250 × 3]>
    ## 10        10 <tibble [250 × 3]>
    ## # … with 990 more rows
…
