…
``` r
##Take in dataframe, want 20% in test df and 80% in training df, and run this 100 training-testing pairs and save them into df
cv_df = 
  crossv_mc(nonlin_df, 100) 
```

One note about
resample…

``` r
##Pull out training first training/testing split. Can pull the lists out individually and manipulate them
cv_df %>% pull(train) %>% .[[1]] %>% as_tibble
```

    ## # A tibble: 79 x 3
    ##       id      x       y
    ##    <int>  <dbl>   <dbl>
    ##  1     1 0.266   1.11  
    ##  2     2 0.372   0.764 
    ##  3     3 0.573   0.358 
    ##  4     4 0.908  -3.04  
    ##  5     6 0.898  -1.99  
    ##  6     7 0.945  -3.27  
    ##  7     8 0.661  -0.615 
    ##  8     9 0.629   0.0878
    ##  9    10 0.0618  0.392 
    ## 10    11 0.206   1.63  
    ## # … with 69 more rows
…
Try fitting the linear model to all of these…

``` r
cv_df %>% 
  mutate(
    linear_mod = map(train, ~lm(y ~ x, data = .x)),
    smooth_mod = map(.x = train, ~gam(y ~s(x), data = .x)),
    wiggly_mod  = map(train, ~gam(y ~ s(x, k = 30), sp = 10e-6, data = .x)),
    rmse_lin = map2_dbl(linear_mod, test, ~rmse(model = .x, data = .y)),
    rmse_smooth = map2_dbl(smooth_mod, test, ~rmse(model = .x, data = .y)),
    rmse_wiggly = map2_dbl(wiggly_mod, test, ~rmse(model = .x, data = .y)))      
```

    ## # A tibble: 100 x 9
    ##    train test  .id   linear_mod smooth_mod wiggly_mod rmse_lin rmse_smooth
    ##    <lis> <lis> <chr> <list>     <list>     <list>        <dbl>       <dbl>
    ##  1 <tib… <tib… 001   <lm>       <gam>      <gam>         0.675       0.298
    ##  2 <tib… <tib… 002   <lm>       <gam>      <gam>         0.655       0.336
    ##  3 <tib… <tib… 003   <lm>       <gam>      <gam>         0.785       0.295
    ##  4 <tib… <tib… 004   <lm>       <gam>      <gam>         0.874       0.263
    ##  5 <tib… <tib… 005   <lm>       <gam>      <gam>         0.784       0.250
    ##  6 <tib… <tib… 006   <lm>       <gam>      <gam>         0.844       0.324
    ##  7 <tib… <tib… 007   <lm>       <gam>      <gam>         0.791       0.274
    ##  8 <tib… <tib… 008   <lm>       <gam>      <gam>         0.758       0.310
    ##  9 <tib… <tib… 009   <lm>       <gam>      <gam>         0.621       0.287
    ## 10 <tib… <tib… 010   <lm>       <gam>      <gam>         0.839       0.338
    ## # … with 90 more rows, and 1 more variable: rmse_wiggly <dbl>
…
